<?xml version="1.0" encoding="UTF-8" standalone="no"?>
<!-- Created with Inkscape (http://www.inkscape.org/) -->

<svg
   id="svg5"
   version="1.1"
   viewBox="0 0 236.32806 75.252731"
   height="75.252731mm"
   width="236.32806mm"
   sodipodi:docname="record-batch-stream.svg"
   inkscape:version="1.1.1 (3bf5ae0d25, 2021-09-20)"
   xmlns:inkscape="http://www.inkscape.org/namespaces/inkscape"
   xmlns:sodipodi="http://sodipodi.sourceforge.net/DTD/sodipodi-0.dtd"
   xmlns="http://www.w3.org/2000/svg"
   xmlns:svg="http://www.w3.org/2000/svg">
  <sodipodi:namedview
     id="namedview7"
     pagecolor="#ffffff"
     bordercolor="#666666"
     borderopacity="1.0"
     inkscape:pageshadow="2"
     inkscape:pageopacity="0.0"
     inkscape:pagecheckerboard="0"
     inkscape:document-units="mm"
     showgrid="false"
     inkscape:zoom="4"
     inkscape:cx="262.125"
     inkscape:cy="70.375"
     inkscape:window-width="2007"
     inkscape:window-height="1088"
     inkscape:window-x="1101"
     inkscape:window-y="53"
     inkscape:window-maximized="0"
     inkscape:current-layer="svg5"
     fit-margin-top="5"
     fit-margin-left="5"
     fit-margin-bottom="5"
     fit-margin-right="5" />
  <defs
     id="defs2">
    <marker
       style="overflow:visible;"
       id="Arrow1Send"
       refX="0.0"
       refY="0.0"
       orient="auto"
       inkscape:stockid="Arrow1Send"
       inkscape:isstock="true">
      <path
         transform="scale(0.2) rotate(180) translate(6,0)"
         style="fill-rule:evenodd;fill:context-stroke;stroke:context-stroke;stroke-width:1.0pt;"
         d="M 0.0,0.0 L 5.0,-5.0 L -12.5,0.0 L 5.0,5.0 L 0.0,0.0 z "
         id="path898" />
    </marker>
    <marker
       style="overflow:visible;"
       id="marker1144"
       refX="0.0"
       refY="0.0"
       orient="auto"
       inkscape:stockid="Arrow1Mend"
       inkscape:isstock="true">
      <path
         transform="scale(0.4) rotate(180) translate(10,0)"
         style="fill-rule:evenodd;fill:context-stroke;stroke:context-stroke;stroke-width:1.0pt;"
         d="M 0.0,0.0 L 5.0,-5.0 L -12.5,0.0 L 5.0,5.0 L 0.0,0.0 z "
         id="path892" />
    </marker>
    <marker
       style="overflow:visible"
       id="Arrow1Mend"
       refX="0"
       refY="0"
       orient="auto"
       inkscape:stockid="Arrow1Mend"
       inkscape:isstock="true">
      <path
         transform="matrix(-0.4,0,0,-0.4,-4,0)"
         style="fill:context-stroke;fill-rule:evenodd;stroke:context-stroke;stroke-width:1pt"
         d="M 0,0 5,-5 -12.5,0 5,5 Z"
         id="path4617" />
    </marker>
    <marker
       style="overflow:visible"
       id="marker4878"
       refX="0"
       refY="0"
       orient="auto"
       inkscape:stockid="Arrow1Lend"
       inkscape:isstock="true">
      <path
         transform="matrix(-0.8,0,0,-0.8,-10,0)"
         style="fill:context-stroke;fill-rule:evenodd;stroke:context-stroke;stroke-width:1pt"
         d="M 0,0 5,-5 -12.5,0 5,5 Z"
         id="path4876" />
    </marker>
    <marker
       style="overflow:visible"
       id="Arrow1Lend"
       refX="0"
       refY="0"
       orient="auto"
       inkscape:stockid="Arrow1Lend"
       inkscape:isstock="true">
      <path
         transform="matrix(-0.8,0,0,-0.8,-10,0)"
         style="fill:context-stroke;fill-rule:evenodd;stroke:context-stroke;stroke-width:1pt"
         d="M 0,0 5,-5 -12.5,0 5,5 Z"
         id="path4611" />
    </marker>
  </defs>
  <g
     inkscape:label="Layer 1"
     inkscape:groupmode="layer"
     id="layer1"
     transform="translate(4.5281472,-36.695808)" />
  <g
     id="g998"
     transform="translate(-20.801978,-28.162207)">
    <rect
       style="color:#000000;overflow:visible;fill:none;stroke:#204a87;stroke-width:0.439276"
       id="rect4958"
       width="9.8535757"
       height="11.999167"
       x="108.42269"
       y="62.1978" />
    <rect
       style="color:#000000;overflow:visible;fill:none;stroke:#204a87;stroke-width:0.439276"
       id="rect9229"
       width="9.8535757"
       height="11.999167"
       x="118.27627"
       y="62.1978" />
    <rect
       style="color:#000000;overflow:visible;fill:none;stroke:#204a87;stroke-width:0.439276"
       id="rect9235"
       width="9.8535757"
       height="11.999167"
       x="128.12984"
       y="62.1978" />
    <text
       xml:space="preserve"
       style="color:#000000;font-size:7.05556px;line-height:0;font-family:sans-serif;-inkscape-font-specification:'sans-serif, Normal';text-align:center;text-decoration:none;text-decoration-line:none;text-decoration-color:#000000;letter-spacing:0px;word-spacing:0px;writing-mode:lr-tb;text-anchor:middle;overflow:visible;fill:#000000;fill-opacity:1;stroke:none;stroke-width:0.873125"
       x="89.506165"
       y="70.956566"
       id="text12273"><tspan
         sodipodi:role="line"
         id="tspan12271"
         style="fill:#000000;fill-opacity:1;stroke:none;stroke-width:0.873125"
         x="89.506165"
         y="70.956566">レコード1</tspan></text>
    <rect
       style="color:#000000;overflow:visible;fill:none;stroke:#204a87;stroke-width:0.439276"
       id="rect12821"
       width="9.8535757"
       height="11.999167"
       x="108.42269"
       y="74.196968" />
    <rect
       style="color:#000000;overflow:visible;fill:none;stroke:#204a87;stroke-width:0.439276"
       id="rect12823"
       width="9.8535757"
       height="11.999167"
       x="118.27627"
       y="74.196968" />
    <rect
       style="color:#000000;overflow:visible;fill:none;stroke:#204a87;stroke-width:0.439276"
       id="rect12825"
       width="9.8535757"
       height="11.999167"
       x="128.12984"
       y="74.196968" />
    <text
       xml:space="preserve"
       style="color:#000000;font-size:7.05556px;line-height:0;font-family:sans-serif;-inkscape-font-specification:'sans-serif, Normal';text-align:center;text-decoration:none;text-decoration-line:none;text-decoration-color:#000000;letter-spacing:0px;word-spacing:0px;writing-mode:lr-tb;text-anchor:middle;overflow:visible;fill:#000000;fill-opacity:1;stroke:none;stroke-width:0.873125"
       x="89.506165"
       y="82.889679"
       id="text12829"><tspan
         sodipodi:role="line"
         id="tspan12827"
         style="fill:#000000;fill-opacity:1;stroke:none;stroke-width:0.873125"
         x="89.506165"
         y="82.889679">レコード2</tspan></text>
    <rect
       style="color:#000000;overflow:visible;fill:none;stroke:#204a87;stroke-width:0.439276"
       id="rect12841"
       width="9.8535757"
       height="11.999167"
       x="108.42269"
       y="86.196136" />
    <rect
       style="color:#000000;overflow:visible;fill:none;stroke:#204a87;stroke-width:0.439276"
       id="rect12843"
       width="9.8535757"
       height="11.999167"
       x="118.27627"
       y="86.196136" />
    <text
       xml:space="preserve"
       style="color:#000000;font-size:7.05556px;line-height:0;font-family:sans-serif;-inkscape-font-specification:'sans-serif, Normal';text-align:center;text-decoration:none;text-decoration-line:none;text-decoration-color:#000000;letter-spacing:0px;word-spacing:0px;writing-mode:lr-tb;text-anchor:middle;overflow:visible;fill:#000000;fill-opacity:1;stroke:none;stroke-width:0.873125"
       x="89.506165"
       y="94.822792"
       id="text12849"><tspan
         sodipodi:role="line"
         id="tspan12847"
         style="fill:#000000;fill-opacity:1;stroke:none;stroke-width:0.873125"
         x="89.506165"
         y="94.822792">レコード3</tspan></text>
    <rect
       style="color:#000000;overflow:visible;fill:none;stroke:#204a87;stroke-width:0.439276"
       id="rect28710"
       width="9.8535757"
       height="11.999167"
       x="128.12984"
       y="86.196136" />
    <text
       xml:space="preserve"
       style="color:#000000;font-style:normal;font-variant:normal;font-weight:normal;font-stretch:normal;font-size:7.05556px;line-height:1;font-family:sans-serif;-inkscape-font-specification:'sans-serif, Normal';font-variant-ligatures:normal;font-variant-caps:normal;font-variant-numeric:normal;font-variant-east-asian:normal;text-align:center;text-decoration:none;text-decoration-line:none;text-decoration-color:#000000;letter-spacing:0px;word-spacing:0px;writing-mode:lr-tb;text-anchor:middle;overflow:visible;fill:#000000;fill-opacity:1;stroke:none;stroke-width:0.873001;stroke-linecap:square;stroke-linejoin:round;stroke-miterlimit:4;stroke-dasharray:none"
       x="105.8433"
       y="48.743599"
       id="text32963"><tspan
         sodipodi:role="line"
         id="tspan38719"
         x="105.8433"
         y="48.743599">レコード</tspan><tspan
         sodipodi:role="line"
         id="tspan38721"
         x="105.8433"
         y="55.79916">バッチ1</tspan></text>
  </g>
  <g
     id="g1013"
     transform="translate(-20.801978,-24.524996)">
    <rect
       style="color:#000000;overflow:visible;fill:none;stroke:#204a87;stroke-width:0.439276"
       id="rect12861"
       width="9.8535757"
       height="11.999167"
       x="182.87692"
       y="57.898266" />
    <rect
       style="color:#000000;overflow:visible;fill:none;stroke:#204a87;stroke-width:0.439276"
       id="rect12863"
       width="9.8535757"
       height="11.999167"
       x="192.7305"
       y="57.898266" />
    <rect
       style="color:#000000;overflow:visible;fill:none;stroke:#204a87;stroke-width:0.439276"
       id="rect12865"
       width="9.8535757"
       height="11.999167"
       x="202.58408"
       y="57.898266" />
    <text
       xml:space="preserve"
       style="color:#000000;font-size:7.05556px;line-height:0;font-family:sans-serif;-inkscape-font-specification:'sans-serif, Normal';text-align:center;text-decoration:none;text-decoration-line:none;text-decoration-color:#000000;letter-spacing:0px;word-spacing:0px;writing-mode:lr-tb;text-anchor:middle;overflow:visible;fill:#000000;fill-opacity:1;stroke:none;stroke-width:0.873125"
       x="163.9604"
       y="66.355278"
       id="text12869"><tspan
         sodipodi:role="line"
         id="tspan12867"
         style="fill:#000000;fill-opacity:1;stroke:none;stroke-width:0.873125"
         x="163.9604"
         y="66.355278">レコード4</tspan></text>
    <rect
       style="color:#000000;overflow:visible;fill:none;stroke:#204a87;stroke-width:0.439276"
       id="rect12881"
       width="9.8535757"
       height="11.999167"
       x="182.87692"
       y="69.897423" />
    <rect
       style="color:#000000;overflow:visible;fill:none;stroke:#204a87;stroke-width:0.439276"
       id="rect12883"
       width="9.8535757"
       height="11.999167"
       x="192.7305"
       y="69.897423" />
    <rect
       style="color:#000000;overflow:visible;fill:none;stroke:#204a87;stroke-width:0.439276"
       id="rect12885"
       width="9.8535757"
       height="11.999167"
       x="202.58408"
       y="69.897423" />
    <text
       xml:space="preserve"
       style="color:#000000;font-size:7.05556px;line-height:0;font-family:sans-serif;-inkscape-font-specification:'sans-serif, Normal';text-align:center;text-decoration:none;text-decoration-line:none;text-decoration-color:#000000;letter-spacing:0px;word-spacing:0px;writing-mode:lr-tb;text-anchor:middle;overflow:visible;fill:#000000;fill-opacity:1;stroke:none;stroke-width:0.873125"
       x="163.9604"
       y="78.288391"
       id="text12889"><tspan
         sodipodi:role="line"
         id="tspan12887"
         style="fill:#000000;fill-opacity:1;stroke:none;stroke-width:0.873125"
         x="163.9604"
         y="78.288391">レコード5</tspan></text>
    <text
       xml:space="preserve"
       style="color:#000000;font-style:normal;font-variant:normal;font-weight:normal;font-stretch:normal;font-size:7.05556px;line-height:1;font-family:sans-serif;-inkscape-font-specification:'sans-serif, Normal';font-variant-ligatures:normal;font-variant-caps:normal;font-variant-numeric:normal;font-variant-east-asian:normal;text-align:center;text-decoration:none;text-decoration-line:none;text-decoration-color:#000000;letter-spacing:0px;word-spacing:0px;writing-mode:lr-tb;text-anchor:middle;overflow:visible;fill:#000000;fill-opacity:1;stroke:none;stroke-width:0.873001;stroke-linecap:square;stroke-linejoin:round;stroke-miterlimit:4;stroke-dasharray:none"
       x="179.67422"
       y="45.106388"
       id="text39498"><tspan
         sodipodi:role="line"
         id="tspan39494"
         x="179.67422"
         y="45.106388">レコード</tspan><tspan
         sodipodi:role="line"
         id="tspan39496"
         x="179.67422"
         y="52.161949">バッチ2</tspan></text>
  </g>
  <text
     xml:space="preserve"
     style="color:#000000;font-size:7.05556px;line-height:0;font-family:sans-serif;-inkscape-font-specification:'sans-serif, Normal';text-align:end;text-decoration:none;text-decoration-line:none;text-decoration-color:#000000;letter-spacing:0px;word-spacing:0px;writing-mode:lr-tb;text-anchor:end;overflow:visible;fill:#000000;stroke-width:0.873001;stroke-linecap:square;stroke-linejoin:round"
     x="46.403183"
     y="11.468298"
     id="text2078"><tspan
       sodipodi:role="line"
       id="tspan2076"
       style="stroke-width:0.873"
       x="46.403183"
       y="11.468298">クライアント</tspan></text>
  <text
     xml:space="preserve"
     style="color:#000000;font-size:7.05556px;line-height:0;font-family:sans-serif;-inkscape-font-specification:'sans-serif, Normal';text-align:end;text-decoration:none;text-decoration-line:none;text-decoration-color:#000000;letter-spacing:0px;word-spacing:0px;writing-mode:lr-tb;text-anchor:end;overflow:visible;fill:#000000;stroke-width:0.873001;stroke-linecap:square;stroke-linejoin:round"
     x="231.87929"
     y="11.595766"
     id="text3851"><tspan
       sodipodi:role="line"
       id="tspan3849"
       style="stroke-width:0.873"
       x="231.87929"
       y="11.595766">サーバー</tspan></text>
  <path
     style="fill:none;fill-rule:evenodd;stroke:#000000;stroke-width:0.439;stroke-linecap:butt;stroke-linejoin:miter;stroke-miterlimit:4;stroke-dasharray:none;stroke-opacity:1;marker-end:url(#marker1144)"
     d="M 198.24247,8.808683 H 55.507771"
     id="path5218"
     sodipodi:nodetypes="cc" />
</svg>
